Prediction
…
B - Load the graduation data

Using read_csv(), read in the datasets graduation_train.csv and graduation_test.csv.

# College data
college_train <- read_csv(file = "1_Data/college_train.csv")
college_test <- read_csv(file = "1_Data/college_test.csv")

Print the data sets to make sure everything’s alright.

# Print data sets to the console
college_train

# A tibble: 500 x 18
   Private  Apps Accept Enroll Top10perc Top25perc F.Undergrad P.Undergrad
   <chr>   <dbl>  <dbl>  <dbl>     <dbl>     <dbl>       <dbl>       <dbl>
 1 Yes      1202   1054    326        18        44        1410         299
 2 No       1415    714    338        18        52        1345          44
 3 Yes      4778   2767    678        50        89        2587         120
 4 Yes      1220    974    481        28        67        1964         623
 5 Yes      1981   1541    514        18        36        1927        1084
 6 Yes      1217   1088    496        36        69        1773         884
 7 No       8579   5561   3681        25        50       17880        1673
 8 Yes       833    669    279         3        13        1224         345
 9 No      10706   7219   2397        12        37       14826        1979
10 Yes       938    864    511        29        62        1715         103
# … with 490 more rows, and 10 more variables: Outstate <dbl>,
#   Room.Board <dbl>, Books <dbl>, Personal <dbl>, PhD <dbl>, Terminal <dbl>,
#   S.F.Ratio <dbl>, perc.alumni <dbl>, Expend <dbl>, Grad.Rate <dbl>

college_test

# A tibble: 277 x 18
   Private  Apps Accept Enroll Top10perc Top25perc F.Undergrad P.Undergrad
   <chr>   <dbl>  <dbl>  <dbl>     <dbl>     <dbl>       <dbl>       <dbl>
 1 No       9251   7333   3076        14        45       13699        1213
 2 Yes      1480   1257    452         6        25        2961         572
 3 No       2336   1725   1043        10        27        5438        4058
 4 Yes      1262   1102    276        14        40         978          98
 5 Yes       959    771    351        23        48        1662         209
 6 Yes       331    331    225        15        36        1100         166
 7 Yes       804    632    281        29        72         840          68
 8 No        285    280    208        21        43        1140         473
 9 Yes       323    278    122        31        51         393           4
10 Yes       504    482    185        10        36         550          84
# … with 267 more rows, and 10 more variables: Outstate <dbl>,
#   Room.Board <dbl>, Books <dbl>, Personal <dbl>, PhD <dbl>, Terminal <dbl>,
#   S.F.Ratio <dbl>, perc.alumni <dbl>, Expend <dbl>, Grad.Rate <dbl>
…
# House prices ------------------------------------------------------------

In this section you will analyze house sales data from King County, Washington. Run the code below to load the house_train and house_test datasets.

# house data
house_train <- read_csv(file = "1_Data/house_train.csv")
house_test <- read_csv(file = "1_Data/house_test.csv")

Print the datasets to the console to get an idea of their contents.

# Print dataframes to the console
house_train

# A tibble: 5,000 x 19
    price bedrooms bathrooms sqft_living sqft_lot floors waterfront  view
    <dbl>    <dbl>     <dbl>       <dbl>    <dbl>  <dbl>      <dbl> <dbl>
 1 176000        2      1            770     5200    1            0     0
 2 370000        2      1            850     6213    1            0     0
 3 875909        4      2.5         3610    13292    2            0     0
 4 100000        2      1            770    17334    1            0     0
 5 580000        3      1.75        1850     2797    1            0     0
 6 577000        5      2.75        1940     5000    2            0     0
 7 665000        4      2.5         2600    17388    2            0     0
 8 425000        3      1.5         1970    13709    1            0     0
 9 225000        3      1            660     6600    1            0     0
10 660000        5      2.25        2540     3750    1.5          0     0
# … with 4,990 more rows, and 11 more variables: condition <dbl>, grade <dbl>,
#   sqft_above <dbl>, sqft_basement <dbl>, yr_built <dbl>, yr_renovated <dbl>,
#   zipcode <dbl>, lat <dbl>, long <dbl>, sqft_living15 <dbl>, sqft_lot15 <dbl>

house_test

# A tibble: 1,000 x 19
    price bedrooms bathrooms sqft_living sqft_lot floors waterfront  view
    <dbl>    <dbl>     <dbl>       <dbl>    <dbl>  <dbl>      <dbl> <dbl>
 1 4.95e5        3      1.75        1890     6557      1          0     0
 2 5.90e5        3      3.5         1970     5079      2          0     0
 3 5.25e5        3      2.25        2100    40510      2          0     0
 4 3.75e5        3      1           1520    10798      1          0     0
 5 2.45e5        4      2.25        2050     7700      2          0     0
 6 1.12e6        3      2.5         4530    22873      2          0     2
 7 4.00e5        2      2.5         1340     1240      2          0     0
 8 5.33e5        4      2.75        2790     6685      2          0     0
 9 7.45e5        4      2.5         3170     5100      2          0     0
10 3.40e5        2      1            800     3090      1          0     0
# … with 990 more rows, and 11 more variables: condition <dbl>, grade <dbl>,
#   sqft_above <dbl>, sqft_basement <dbl>, yr_built <dbl>, yr_renovated <dbl>,
#   zipcode <dbl>, lat <dbl>, long <dbl>, sqft_living15 <dbl>, sqft_lot15 <dbl>
…
