Fitting
…
In this practical, you’ll analyze a dataset of 388 U.S. Colleges. The data is stored in college_train.csv. Using the following template, load the dataset into R as college_train.

# Load in college_train.csv data as college_train
college_train <- read_csv(file = "1_Data/college_train.csv")

college_train <- read_csv(file = "1_Data/college_train.csv")

Take a look at the first few rows of the dataset by printing it to the console. Pay attention to the feature types, the number of features and the number of cases.

college_train

# A tibble: 500 x 18
   Private  Apps Accept Enroll Top10perc Top25perc F.Undergrad P.Undergrad
   <chr>   <dbl>  <dbl>  <dbl>     <dbl>     <dbl>       <dbl>       <dbl>
 1 Yes      1202   1054    326        18        44        1410         299
 2 No       1415    714    338        18        52        1345          44
 3 Yes      4778   2767    678        50        89        2587         120
 4 Yes      1220    974    481        28        67        1964         623
 5 Yes      1981   1541    514        18        36        1927        1084
 6 Yes      1217   1088    496        36        69        1773         884
 7 No       8579   5561   3681        25        50       17880        1673
 8 Yes       833    669    279         3        13        1224         345
 9 No      10706   7219   2397        12        37       14826        1979
10 Yes       938    864    511        29        62        1715         103
# … with 490 more rows, and 10 more variables: Outstate <dbl>,
#   Room.Board <dbl>, Books <dbl>, Personal <dbl>, PhD <dbl>, Terminal <dbl>,
#   S.F.Ratio <dbl>, perc.alumni <dbl>, Expend <dbl>, Grad.Rate <dbl>
…
